<?xml version="1.0" encoding="UTF-8"?>
<svg width="100pt" height="100pt" version="1.1" viewBox="0 0 100 100" xmlns="http://www.w3.org/2000/svg">
 <path d="m50.332 56.762l-21.684 21.684c-1.7773 1.7773-4.6641 1.7852-6.4375 0.011719-1.7891-1.7891-1.7695-4.6602 0.011718-6.4414l21.684-21.684-21.684-21.684c-1.7812-1.7773-1.7891-4.6641-0.011718-6.4375 1.7852-1.7891 4.6562-1.7695 6.4375 0.011718l21.684 21.684 21.684-21.684c1.7812-1.7812 4.6641-1.7891 6.4414-0.011718 1.7852 1.7852 1.7695 4.6562-0.011719 6.4375l-21.684 21.684 21.684 21.684c1.7773 1.7812 1.7852 4.6641 0.011719 6.4414-1.7891 1.7852-4.6602 1.7695-6.4414-0.011719z" fill-rule="evenodd"/>
</svg>
